,,Total Papers,,0. Presenting an HL-Tool? ,,,,1. Explicitly using Visualisation?,,,,2. Screenshot Provided?,,,,3. Visualisation Explained?,,,4. Visualisation Motivated?,,,5. Implementation Described?,
,,,,Yes,Unclear,No,,Yes,Unclear,No,,Yes,Partial,No,,Yes,No,,Yes,No,,Yes,No
,,,,,,,,,,,,,,,,,,,,,,,
Overall,,1274,,110,125,1039,0,43,55,12,,28,12,58,,37,61,,17,81,,12,86
,Explicit Vis,43,,,,,,43,,,,18,8,17,,24,19,,12,31,,7,36
,Unclear Vis,55,,,,,,,55,,,10,4,41,,13,42,,5,50,,5,50
,,,,,,,,,,,,,,,,,,,,,,,
2017,,223,,15,29,179,,9,6,0,,3,2,10,,6,9,,2,13,,1,14
,Explicit Vis,9,,,,,,9,,,,2,2,5,,4,5,,1,8,,0,9
,Unclear Vis,6,,,,,,,6,,,1,0,5,,2,4,,1,5,,1,5
,,,,,,,,,,,,,,,,,,,,,,,
2018,,221,,18,37,166,,7,9,2,,6,3,7,,6,10,,1,15,,2,14
,Explicit Vis,7,,,,,,7,,,,3,3,1,,3,4,,0,7,,0,7
,Unclear Vis,9,,,,,,,9,,,3,0,6,,3,6,,1,8,,2,7
,,,,,,,,,,,,,,,,,,,,,,,
2019,,228,,23,9,196,,10,10,3,,8,3,9,,10,10,,4,16,,3,17
,Explicit Vis,10,,,,,,10,,,,5,3,2,,6,4,,3,7,,2,8
,Unclear Vis,10,,,,,,,10,,,3,0,7,,4,6,,1,9,,1,9
,,,,,,,,,,,,,,,,,,,,,,,
2020,,307,,29,25,253,,8,19,2,,9,4,14,,9,18,,6,21,,6,21
,Explicit Vis,8,,,,,,8,,,,6,0,2,,6,2,,4,4,,5,3
,Unclear Vis,19,,,,,,,19,,,3,4,12,,3,16,,2,17,,1,18
,,,,,,,,,,,,,,,,,,,,,,,
2021,,295,,25,25,245,,9,11,5,,2,0,18,,6,14,,4,16,,0,20
,Explicit Vis,9,,,,,,9,,,,2,0,7,,5,4,,4,5,,0,9
,Unclear Vis,11,,,,,,,11,,,0,0,11,,1,10,,0,11,,0,11
,,,,,,,,,,,,,,,,,,,,,,,
,,,,,,,,,,,,,,,,,,,,,,,
ASPLOS,,328,,18,28,282,,5,11,2,,1,2,13,,3,13,,3,13,,2,14
,Explicit Vis,5,,,,,,5,,,,0,2,3,,1,4,,2,3,,0,5
,Unclear Vis,11,,,,,,,11,,,1,0,10,,2,9,,1,10,,2,9
,,,,,,,,,,,,,,,,,,,,,,,
NSDI,,248,,26,28,194,,14,9,3,,9,3,11,0,13,10,0,4,19,0,4,19
,Explicit Vis,14,,,,,,14,,,,7,3,4,,9,5,,3,11,,4,10
,Unclear Vis,9,,,,,,,9,,,2,0,7,,4,5,,1,8,,0,9
,,,,,,,,,,,,,,,,,,,,,,,
OSDI,,148,,16,17,115,,3,11,2,,4,4,6,0,4,10,0,0,14,0,1,13
,Explicit Vis,3,,,,,,3,,,,2,1,0,,2,1,,0,3,,0,3
,Unclear Vis,11,,,,,,,11,,,2,3,6,,2,9,,0,11,,1,10
,,,,,,,,,,,,,,,,,,,,,,,
SIGCOMM,,216,,22,16,178,,8,11,3,,4,3,12,0,6,13,0,3,16,0,2,17
,Explicit Vis,8,,,,,,8,,,,3,2,3,,4,4,,2,6,,1,7
,Unclear Vis,11,,,,,,,11,,,1,1,9,,2,9,,1,10,,1,10
,,,,,,,,,,,,,,,,,,,,,,,
SOCC,,203,,23,21,159,,10,11,2,,8,0,13,0,9,12,0,6,15,0,3,18
,Explicit Vis,10,,,,,,10,,,,5,0,5,,6,4,,4,6,,2,8
,Unclear Vis,11,,,,,,,11,,,3,0,8,,3,8,,2,9,,1,10
,,,,,,,,,,,,,,,,,,,,,,,
SOSP,,131,,5,15,111,,3,2,0,,2,0,3,0,2,3,0,1,4,0,0,5
,Explicit Vis,3,,,,,,3,,,,1,0,2,,2,1,,1,2,,0,3
,Unclear Vis,2,,,,,,,2,,,1,0,1,,0,2,,0,2,,0,2
,,,,,,,,,,,,,,,,,,,,,,,
,,,,,,,,,,,,,,,,,,,,,,,
Industry,,52,,,,,,22,25,5,,15,4,28,,19,28,,11,36,,6,41
,Explicit Vis,22,,,,,,22,,,,11,3,8,,13,9,,8,14,,4,18
,Unclear Vis,25,,,,,,,25,,,4,1,20,,6,19,,3,22,,2,23