,,Total Papers,,0. Presenting an HL-Tool? ,,,,1. Explicitly using Visualisation?,,,,2. Screenshot Provided?,,,,3. Visualisation Explained?,,,4. Visualisation Motivated?,,,5. Implementation Described?,
,,,,Yes,Unclear,No,,Yes,Unclear,No,,Yes,Partial,No,,Yes,No,,Yes,No,,Yes,No
,,,,,,,,,,,,,,,,,,,,,,,
Overall,,223,,15,29,179,,9,6,0,,3,2,10,,6,9,,2,13,,1,14
,Explicit Vis,9,,,,,,9,,,,2,2,5,,4,5,,1,8,,0,9
,Unclear Vis,6,,,,,,,6,,,1,0,5,,2,4,,1,5,,1,5
,,,,,,,,,,,,,,,,,,,,,,,
ASPLOS,,56,,1,7,48,,,,,,0,0,1,,0,1,,0,1,,0,1
,Explicit Vis,0,,,,,,0,,,,0,0,0,,0,0,,0,0,,0,0
,Unclear Vis,1,,,,,,,1,,,0,0,1,,0,1,,0,1,,0,1
,Industry,1,,,,,,,,,,0,0,1,,0,1,,0,1,,0,1
,Industry EV,,,,,,,0,,,,0,0,0,,0,0,,0,0,,0,0
,Industry UV,,,,,,,,1,,,0,0,1,,0,1,,0,1,,0,1
,,,,,,,,,,,,,,,,,,,,,,,
NSDI,,44,,4,5,35,,,,,,0,2,2,,2,2,,0,4,,0,4
,Explicit Vis,3,,,,,,3,,,,0,2,1,,1,2,,0,3,,0,3
,Unclear Vis,1,,,,,,,1,,,0,0,1,,1,0,,0,1,,0,1
,Industry,2,,,,,,,,,,0,1,1,,2,0,,0,2,,0,2
,Industry EV,,,,,,,1,,,,0,1,0,,1,0,,0,1,,0,1
,Industry UV,,,,,,,,1,,,0,0,1,,1,0,,0,1,,0,1
,,,,,,,,,,,,,,,,,,,,,,,
OSDI,,0,,,,0,,,,,,0,0,0,,0,0,,0,0,,0,0
,Explicit Vis,,,,,,,,,,,,,,,,,,,,,,
,Unclear Vis,,,,,,,,,,,,,,,,,,,,,,
,Industry,0,,,,,,,,,,0,0,0,,0,0,,0,0,,0,0
,Industry EV,,,,,,,,,,,,,,,,,,,,,,
,Industry UV,,,,,,,,,,,,,,,,,,,,,,
,,,,,,,,,,,,,,,,,,,,,,,
SIGCOMM,,36,,2,4,30,,,,,,1,0,1,,1,1,,0,2,,0,2
,Explicit Vis,2,,,,,,2,,,,1,0,1,,1,1,,0,2,,0,2
,Unclear Vis,0,,,,,,,0,,,0,0,0,,0,0,,0,0,,0,0
,Industry,2,,,,,,,,,,1,0,1,,1,1,,0,2,,0,2
,Industry EV,,,,,,,2,,,,1,0,1,,1,1,,0,2,,0,2
,Industry UV,,,,,,,,0,,,0,0,0,,0,0,,0,0,,0,0
,,,,,,,,,,,,,,,,,,,,,,,
SoCC,,48,,5,4,39,,,,,,1,0,4,,1,4,,1,4,,1,4
,Explicit Vis,1,,,,,,1,,,,0,0,1,,0,1,,0,1,,0,1
,Unclear Vis,4,,,,,,,4,,,1,0,3,,1,3,,1,3,,1,3
,Industry,4,,,,,,,,,,1,0,3,,1,3,,1,3,,0,4
,Industry EV,,,,,,,1,,,,0,0,1,,0,1,,0,1,,0,1
,Industry UV,,,,,,,,3,,,1,0,2,,1,2,,1,2,,0,3
,,,,,,,,,,,,,,,,,,,,,,,
SOSP,,39,,3,9,27,,3,0,0,,1,0,2,,2,1,,1,2,,0,3
,Explicit Vis,3,,,,,,3,,,,1,0,2,,2,1,,1,2,,0,3
,Unclear Vis,0,,,,,,,0,,,0,0,0,,0,0,,0,0,,0,0
,Industry,2,,,,,,2,0,0,,1,0,1,,1,1,,1,1,,0,2
,Industry EV,2,,,,,,2,,,,1,0,1,,1,1,,1,1,,0,2
,Industry UV,0,,,,,,,0,,,0,0,0,,0,0,,0,0,,0,0
,,,,,,,,,,,,,,,,,,,,,,,
Industry,,11,,,,,,6,5,0,,3,1,7,,5,6,,2,9,,0,11
,Explicit Vis,6,,,,,,6,,,,2,1,3,,3,3,,1,5,,0,6
,Unclear Vis,5,,,,,,,5,,,1,0,4,,2,3,,1,4,,0,5