IDS,,Paper Title,Initial Rating,Industry,Tags,,1. User tool?,N,,Visualisation,N,,2. Screenshot?,Recorded?,Type,Tags,N,,3.Explain?,Well?,N,,4. Reason?,Sort,N,,5.How?,A. PL/Frameworks,B. Link,C. Dev,N
,,,,,,,,,,,,,,,,,,,,,,,,,,,,,,,
SI_2020_10,,Interpreting Deep Learning-Based Networking Systems,y,,"Network, ML, Debug, Monitoring",,Yes,"Discuss a tool called Metis that 'helps network operators to design, debug, deploy, and ad-hoc adjust DL-based networking systems'",,Yes,,,Yes,Yes,Overview#Diagram#Diagram,"SomeDetail#Example, Mock-Up#Example, Mock-Up",Includes an overview diagram whcih gives some indication of the output and then provides 2 example diagrams of what the graph output would look like. These are not screenshots of the actual system but in this case I think are sufficient to be treated as such,,Yes,Yes,Section 4 discusses what is output and how to consume it,,Yes,Unfounded,Takes a part of section 2.1 to discuss why the old approaches are not good and why there's imrpoves the interpretability,,Yes,Yes,Yes,No,Brief discussion in the implementation section but not very in depth
N_2020_55,,Finding Network Misconfigurations by Automatic Template Inference,y,y,"Network, Monitoring, Debug, Configuration",,Yes,Unclear from abstract to what extent user is involved with tool as it seems to do some automatic inferring,,Yes,Specifically shows visualisation,,Yes,Yes,Textual,"Example, Text, Colour",,,Yes,Yes,,,Yes,Intuitive,,,Yes,No,,,This is actually one of the only papers where they seem to explain the visual techniques they are using/applying (section 2)
SOC_2020_24,,Automatically detecting risky scripts in infrastructure code,m,y,"Automation, Detection, Analysis",,Yes,"Contributes a system which involves outputting information about problems to a user. One of the first papers to satisfy all questinos to some extent, and even provides some insight onto the user experience too",,Yes,Although primarily textual based output still some visualisation aspects involved,,Yes,Yes,"Example, Screenshot, Textual","Example, Textual",,,Yes,Yes,,,Yes,Well-justified,,,Yes,,,Yes,
SOC_2020_25,,Influence-based provenance for dataflow applications with taint propagation,y,n,"Big Data, Analysis, Debug",,Yes,They are implementing a debuggin system intended to be used by users,,Yes,Frequently references visual interpretation of the output,,Yes,Yes,Example,Unclear,,,No,,,,No,,,,No,,,,
N_2020_22,,"Gandalf: An Intelligent, End-To-End Analytics Service for Safe Deployment in Large-Scale Cloud Infrastructure",y,y,"Cloud, Monitoring, Analysis",,Yes,During introduction paper mentions an 'interactive front-end',,Yes,Difficult to explicitly ascertain the form of data presentation but discusses an interactive frontend,,No,Yes,Overview,NoDetail,Kind of amusingly they also show a screenshot of the usage of their UI,,Yes,No,"They tell you what is being shown in each view, but no actual explanation of how it is shown (and no screenshot)",,No,,,,Yes,,,Partial,Section 3.6 discusses the frontend in very light detail
N_2020_25,,Rex: Preventing Bugs and Misconfiguration in Large Services Using Correlated Change Analysis,y,y,"ML, Cloud, Management, Bugs",,Yes,Discusses 'Rex' which seems to be most focussed on providing prompts/feedback to users,,Yes,"Minimal actual visualisation, more textual but UI based",,Yes,Yes,"Screenshot, Interface","Example, Interface",,,Yes,Partial,Minimal explanation in the figure caption,,Yes,"Anecdotal, Preliminary Empirical",They motivate the method of highlighting by previous analyses showing multiple edited files etc. The user study they cary out is a pretty good bonus for the work they are doing.,,No,,,,
N_2020_56,,tpprof: A Network Traffic Pattern Profiler,y,,"Cloud, Analysis, Monitoring, Network",,Yes,They explicitly mention 'a robust tool to analyze',,Yes,Discusses visualisation explicitly,,Yes,Yes,"HeatMap,Line","Example, Novel",ALl three screenshots pretty similar,,Yes,Yes,Seems to be quite reasonably and well explained,,No,,"I don't think they really address this, though slighlty hard to ascertain",,Yes,Yes,No,No,They do discuss the use of plotlib etc. but no link or thorough discussion.
N_2020_2,,Measuring Congestion in High-Performance Datacenter Interconnects,y,,"Network, Monitoring, Supercomputer, Datacentre",,Yes,"Called Monet, supposed to provide analysis and feedback at runtime. Unclear exactly how much user interaction the system actually permits.",,Yes,"Also difficult to ascertain, but some form of visual display is unavoidable",,No,,,,,,No,,,,No,,,,No,,,,
SI_2020_2,,VTrace: Automatic Diagnostic System for Persistent Packet Loss in Cloud-Scale Overlay Network,y,y,"Trace, Cloud, Network, Logging, Analysis, Diagnosis, management",,Yes,"Talk about compiling existing logs to ""present the diagnostic results""",,Unclear,No indication how the output is presented to users,,Yes,Yes,Overview#Diagram,"NoDeatail#Example,Mock-Up",Slightly hard to ascertain if this actually is exactly what the output would look like or whether they have simplified it.,,Yes,Yes,Decent effort and time spent explaining what the viruaal flow path is,,Yes,Unfounded,Some attempt to discuss the reasons for generating the graphs as they are,,Yes,Yes,No,Yes,Whole subsection (3.6) dedicated to describing the DCA (Data collection and analysis) implementation
N_2020_39,,Contra: A Programmable System for Performance-aware Routing,y,y,"Network, Management",,Yes,Not fully clear but they do discuss how their system is 'programmable',,Unclear,Don't know if visualisation is used,,Yes,Yes,Textual#Code,Documentation#Pseudocode,,,Yes,Yes,Fairly in depth explanation of the language that can be used,,No,,,,No,,,,
O_2020_40,,Automated Reasoning and Detection of Specious Configuration in Large Systems with Symbolic Execution,m,,Configuration,,Yes,"Discusses the type of output that the system outputs: a ""configuration performance impact model"", cool because they do a user study, woudl have been useful to see the users thoughts on the layout, but even just recording the uses' accuracy on identifying based on the output is still really valuable",,Unclear,Seems like it's majority textual based but unclear,,Yes,Yes,"Textual,Table",Example,,,Yes,Yes,Fairly clear explanation of the table layout,,No,,,,No,,,,They make one statement regarding the development of the analyser but do not actually give any detail
O_2020_41,,Testing Configuration Changes in Context to Prevent Production Failures,y,,"Configuration, Cloud, Testing",,Yes,"System for generating tests which can then be used to analyse and find bugs. Really hard to ascertainwhether they actually are concerned wiith the output of the generated Ctests or not. They discuss analysing the output and finding undiscovered bugs in the paper though, without giving any real/clear details about what the output might look like.",,Unclear,No details of what the output might look like,,Partial,Yes,"Textual, Code",Example,Unclear whether this is actually an example of the output or not,,No,,,,No,,,,No,,,,
O_2020_37,,Testing Database Engines via Pivoted Query Synthesis,y,,"Database, Testing, Debugging",,Yes,It talks about finding bugs but doesn't really show the output of how these bugs are identified/localised/reported? Don't know if this is a reasonable expectation or not?,,Unclear,No indication how the output is presented to users,,Partial,Yes,"Textual, Code",Example,Unclear whether these Listings are example output or not,,No,,,,No,,,,No,,,,
O_2020_58,,AGAMOTTO: How Persistent is your Persistent Memory Application?,y,,"Debugging, Memory",,Yes,"More bug finding, if you are finding bugs you have to be reporting them in some way",,Unclear,No indication how the output is presented to users,,Partial,Yes,"Textual, Code",Example,Really hard to ascertain if this is a screenshot of the output or if it has been embellished with further manual information,,No,,,,No,,,,No,,,,
SI_2020_26,,Microscope: Queue-based Performance Diagnosis for Network Functions,m,y,"Network, Diagnosis",,Yes,"I think this paper is concerned with presenting output to users, but it is very difficult to infer from the writring",,Unclear,No indication how the output is presented to users,,Partial,Yes,Textual,Example,"V limited example, unclear exactly what is being shown",,No,,,,No,,,,No,,,,
N_2020_32,,Check before You Change: Preventing Correlated Failures in Service Updates,y,y,"Cloud, Monitoring, Trace",,Yes,"CloudCanary - in intro says ""can effficiently and accurately alert the operator to root causes..."" A frustrating example of where they give zero evidence for their claim.",,Unclear,Don't know how they present the data to their user despite saying they do,,No,Yes,Overview,NoDetail,,,No,No,V brief discussion about what an operator 'can' do,,Yes,Anecdotal,They do briefly dicuss why they want to present the improvement plans to the operator,,No,,,,
O_2020_59,,Orchard: Differentially Private Analytics at Scale,y,,"Privacy, distributed",,Yes,Discusses a system that returns results based on queries entered by a user,,Unclear,Not clear how output is presented to user,,No,,,,,,No,,In Section 5.1 the overall workflow is discussed and details the suer submitting a query but hten never discusses how it is returend,,No,,,,No,,,,
A_2020_70,,Effective Concurrency Testing for Distributed Systems,y,,"Concurrency, Distributed, Testing",,Yes,"Describes a tool, Morpheus, for testing and investigating interleavings/concurrency in distributed systems, see end of section 2.1",,Unclear,Seems unlikely there is visualisation in this output but not able to conclusively say either wya,,No,,,,"Buried right down in the appendix (A.5) is a description of how the system should actually be used, and the first explanation that tables can be generated from the data output by the system",,No,,,,No,,,,No,,,,
SI_2020_27,,OmniMon: Re-architecting Network Telemetry with Resource Efficiency and Full Accuracy,y,y,"Network, Monitoring, Management, Datacentre",,Yes,Offering a system for bettern provision of telemetry data,,Unclear,"Provides telemetry data, but not sure how it actually does this",,No,,,,,,No,,,,No,,,,No,,,,
SI_2020_40,,"Accuracy, Scalability, Coverage: A Practical Configuration Verifier on a Global WAN",y,y,"Network, Monitoring, Verification",,Yes,"There is mention of output being presented to users, in 8.1 under Verification accuracy they say: ""We measured the verification accuracy by comparing HOYAN's outputs with the operator's expectation and figuring out the wrong side if a mismatch happens""",,Unclear,"Definitely provide output, but not clear what form it is in",,No,Yes,Overview,NoDetail,,,No,,,,No,,,,No,,,,
SI_2020_38,,bf4: towards bug-free P4 programs,y,,"Network, Verification",,Yes,Explicitly says (in step 3 of how bf4 works in intro) that the system proposes code changes to the programmer - want to know how these code changes are presented,,Unclear,Code changes may be purely textual suggestions but not obvious,,No,,,,,,No,,Discusses at one point the use of an sql syntax but I don't think this is in relation to the output,,No,,,,No,,,,
O_2020_38,,Gauntlet: Finding Bugs in Compilers for Programmable Packet Processing,y,,"Debugging, Monitoring",,Yes,"Talks a lot about finding bugs but doesn't explain how this info is given to a user, outside of perhaps the vague reference to a debug report",,Unclear,"May again be purely textual, but no way to actually know",,No,,,,,,No,,,,No,,,,No,,,,
SI_2020_5,,Flow Event Telemetry on Programmable Data Plane,y,y,"Network, Monitoring",,Yes,"There is discussion of reducing the mitigation time for operators, and how operators can use the system to do so, but no discussion of how the localisation is presented to the user.",,Unclear,No indication how the output is presented to users,,No,,,,,,No,,,,No,,,,No,,,,
A_2020_73,,Cross-Failure Bug Detection in Persistent Memory Programs,y,y,"Software, Testing, Debugging",,Yes,Again they are reporting the location of bugs so there is some output involved,,Unclear,No indication how the output is presented to users,,No,Yes,Overview,NoDetail,,,No,,"Buried in the appendix is this description of the output, and that is all that is offered: ""Output. XFDetector reports all detected bugs after testing is complete. The output is dumped to the screen and the corresponding <WORKLOAD>_<TESTSIZE>_debug.txt file.""",,No,,,,No,,,,
SI_2020_15,,"BeauCoup: Answering Many Network Traffic Queries, One Memory Update at a Time",y,,"Network, Measurement",,Yes,"Discusses at one point how BeauCoup should output an alert, but at no point does it discuss the format of this, or the format of any of the other output from the system.",,Unclear,No indication how the output is presented to users,,No,,,,,,No,,,,No,,,,No,,,,
O_2020_51,,Retiarii: A Deep Learning Exploratory-Training Framework,m,y,"ML, Configuration",,Yes,Buried in the appendix is a reference to the output being usable through a web ui but no details or information besides this,,Unclear,"Appendix mentions a web ui, no other metnion of this in the paper",,No,,,,,,No,,,,No,,,,No,,,,
N_2020_46,,TimeCrypt: Encrypted Data Stream Processing at Scale with Cryptographic Access Control,y,,"Stream, Security, Analysis",,Yes,Discusses users in the abstract,,Unclear,Potentially all CLI but really hard to ascertain,,No,,,,,,No,,,,No,,,,No,,,,
N_2020_54,,Network Error Logging: Client-side measurement of end-to-end web service reliability,y,y,"Cloud, Network, Monitoring",,Yes,Discusses the use of NEL headers to enable their approach to work,,No,Think this is almost exclusively text based,,Yes,Yes,"Textual,Code",Example,,,Yes,Yes,Screenshot is annotated,,No,,,,No,,,,
A_2020_16,,∅sim: Preparing System Software for a World with Terabyte-scale Memories,m,,"Memory, Debugging, Software",,Yes,Discusses generated output in the appendix,,No,"Limited to textual output only, but this is buried deep in the appendix",,No,,,,,,No,,,,No,,,,No,,,,
,,,,,,,,,,,,,,,,,,,,,,,,,,,,,,,
N_2020_23,,Experiences with Modeling Network Topologies at Multiple Levels of Abstraction,y,,"Network, Software, Management",,Unclear,"Think this paper is more a description of a methodology rather than an actual user tool, and so don't think it is a great fit.",,,,,,,,,,,,,,,,,,,,,,,
N_2020_24,,Firecracker: Lightweight Virtualization for Serverless Applications,y,,"Cloud, Virtualisation, Monitoring, Microservice",,Unclear,"Describes it as a monitor, but nowhere is there any discussion of how one interacts with it",,,,,,,,,,,,,,,,,,,,,,,
N_2020_59,,CarMap: Fast 3D Feature Map Updates for Automobiles,y,,"Cloud, Map",,Unclear,"CarMap - but seems to be a kind of augmentation of existing other approaches, and the focus here is on generating the data not necessarily on how it is viewed. As such they probably don't need to explain or justify?",,,,,Yes,Yes,Map,Map,,,No,,,,No,,,,No,,,,
O_2020_45,,FIRM: An Intelligent Fine-grained Resource Management Framework for SLO-Oriented Microservices,y,,"Microservice, Management, ML, Trace",,Unclear,"Can't really tell if this is some sort of fully integrated system that feeds back into itself, or whether there is output to be interpreted. They talk about it being a distributed tracing system and localising these faults and how they take inspiration from Dapper, but no actual presentation or discussion of output/end users",,,,,,,,,,,,,,,,,,,,,,,
A_2020_45,,Accelerometer: Understanding Acceleration Opportunities for Data Center Overheads at Hyperscale,y,,"Optimisation, Microservice, Datacentre, Cloud, Analysis",,Unclear,"Hard to see if there is actually output generated by Accelerometer, and if there is, whether it is intended to be consumed by a user or not.",,,,,,,,,,,,,,,,,,,,,,,
O_2020_44,,Twine: A Unified Cluster Management System for Shared Infrastructure,y,,"Cluster, Management",,Unclear,"This does not seem as concerned with user ouptut but more just autonomous control of clusters, though there is one mention of user-experience (3.3)",,,,,,,,,,,,,,,,,,,,,,,
A_2020_42,,A Benchmark Suite for Evaluating Caches' Vulnerability to Timing Attacks,y,,"Security, Privacy, Cache",,Unclear,Hard to tell if the authors think that the development of the benchmark includes the presentation/analysis of the results or not. They give some graphs (figure 5 and 6 for eg.) but not clear if these are generated by the benchmark or by the authors from the data obtained from the benchmark suite,,,,,,,,,,,,,,,,,,,,,,,
SI_2020_44,,PINT: Probabilistic In-band Network Telemetry,y,,"Network, Monitoring",,Unclear,"Seem to suggest the system allows the users to do things/presents the users with some of the info, but then doesn't go on to explain this and the whole paper is just focussed on the retrieval of the data",,,,,,,,,,,,,,,,,,,,,,,
N_2020_17,,Fine-Grained Replicated State Machines for a Cluster Storage System,m,,Storage,,Unclear,"Think this is effectively just the provision of an API rather than a user tool, so potentially not a good fit",,,,,No,,,,,,No,No,Authors describe the operations available through the API but not how to actually do it,,No,,,,No,,,,
N_2020_27,,Millions of Tiny Databases,m,,"Database, Cloud, Configuration",,Unclear,"Again really hard to ascertain if this is an API and if so, how one uses it, or they've just focussed on a general abstraction",,,,,,,,,,,,,,,,,,,,,,,
N_2020_18,,Scalog: Seamless Reconfiguration and Total Order in a Scalable Shared Log,m,,"Cloud, Log, Configuration",,Partial,"It is an API again, so I think I will omit, but there is a table showing API and fairly in depth discusison of it",,,,,,,,,,,,,,,,,,,,,,,
N_2020_31,,"Understanding, Detecting and Localizing Partial Failures in Large System Software",m,,"Cloud, Analysis",,Unclear,This paper could fall into the realm of needed user facing stuff and didn't show it,,,,,Yes,Yes,Overview#Textual,"Overview#Code,Example",,,Yes,Partial,The example of watchdog generated is annotated,,No,,,,No,,,,
N_2020_34,,CableMon: Improving the Reliability of Cable Broadband Networks via Proactive Network Maintenance,m,,"Network, Management, Maintenance",,Unclear,Not sure if CableMon supplies feedback to a human user or not,,,,,,,,,,,,,,,,,,,,,,,
N_2020_44,,PrivateEye: Scalable and Privacy-Preserving Compromise Detection in the Cloud,m,,"Security, Cloud, Monitoring",,Unclear,Not clear if PriavteEye just does the work itself or presents it to a user,,,,,,,,,,,,,,,,,,,,,,,
N_2020_38,,Programmable Calendar Queues for High-speed Packet Scheduling,m,,"Schedule, Network",,Unclear,"Mentions programmable, but nowhere else in papers are users referred to",,,,,,,,,,,,,,,,,,,,,,,
SI_2020_17,,Scouts: Improving the Diagnosis Process Through Domain-customized Incident Routing,m,,"Network, ML, Datacentre",,Unclear,"I don't think this paper is concerned with the presentation of the output from the scouts they implement, but rather just making sure the correct incidents get sent to the correct team. It seems the output/handling of the things per team is handled by something else, though this is not clear.",,,,,,,,,,,,,,,,,,,,,,,
O_2020_62,,LocAP: Autonomous Millimeter Accurate Mapping of WiFi Infrastructure,m,,"Localisation, Network",,Unclear,"This paper is pretty much exclusively focussed on gathering the localisation data to do with where users of acesspoints are etc. but hard to tell if they actually develop any form of output for this data. They have a lot of diagrams/graphs, but these could just be generated by the authors or may be actual output from the system, hard to tell.",,,,,,,,,,,,,,,,,,,,,,,
A_2020_59,,COIN Attacks: On Insecurity of Enclave Untrusted Interfaces in SGX,m,,"Security, Privacy",,Unclear,"Again, down in the appendix there is reference to the system outputting a report but not clear what form this takes or whether a user is intended to interpret it",,,,,,,,,,,,,,,,,,,,,,,
A_2020_31,,Classifying Memory Access Patterns for Prefetching,m,,Memory,,Unclear,There are very brief mentions to output but unclear if it is really part of paper or not,,,,,,,,,,,,,,,,,,,,,,,
O_2020_24,,Serving DNNs like Clockwork: Performance Predictability from the Bottom Up,m,,"Distributed, Performance, ML",,Unclear,"In the appendix mention of telemetry data and similar but no description in paper, don't think it is particularly relevant for this work",,,,,,,,,,,,,,,,,,,,,,,
O_2020_67,,Unearthing inter-job dependencies for better cluster scheduling,m,,"Cluster, Scheduling",,Unclear,"I think the output of their system is fed direcrtly into an automated scheduler and not intended for consumption by humans, but then there is a little bit of discussion of DAGs and similar",,,,,,,,,,,,,,,,,,,,,,,
SI_2020_18,,Contention-Aware Performance Prediction For Virtualized Network Functions,m,,"Network, Performance, Evaluation",,Unclear,Really unsure if this work produces output intended for human consumption or not,,,,,,,,,,,,,,,,,,,,,,,
SOC_2020_4,,ByteSeries: an in-memory time series database for large-scale monitoring systems,y,y,"Monitoring, Systems, Database",,Unclear,Very hard to establish whether the tool implements a UI or not,,,,,,,,,,,,,,,,,,,,,,,
,,,,,,,,,,,,,,,,,,,,,,,,,,,,,,,
N_2020_26,,Building An Elastic Query Engine on Disaggregated Storage,y,,"Cloud, Database, Storage",,No,Not a good fit,,,,,,,,,,,,,,,,,,,,,,,
SI_2020_30,,"PBE-CC: Congestion Control via Endpoint-Centric, Physical-Layer Bandwidth Measurements",y,,"Network, Mobile",,No,"Bad fit, is about a mobile network protocol",,,,,,,,,,,,,,,,,,,,,,,
O_2020_64,,Predictive and Adaptive Failure Mitigation to Avert Production Cloud VM Interruptions,y,,"Cloud, Management, Mitigation",,No,Actually about removing the human from the loop and automating the mitigation,,,,,,,,,,,,,,,,,,,,,,,
O_2020_16,,Overload Control for µs-scale RPCs with Breakwater,y,,"Management, Cloud, Microservice",,No,Automated control system (with minimum user input),,,,,,,,,,,,,,,,,,,,,,,
SI_2020_31,,Akamai DNS: Providing Authoritative Answers to the World's Queries,y,,"Network, Internet",,No,It is just a characterisation/example of how Akamai DNS works,,,,,,,,,,,,,,,,,,,,,,,
O_2020_62,,SafetyPin: Encrypted Backups with Human-Memorable Secrets,y,,"Security, Encryption",,No,Not a good fit,,,,,,,,,,,,,,,,,,,,,,,
O_2020_22,,FlightTracker: Consistency across Read-Optimized Online Stores at Facebook,y,,"Database, Cloud, Consistency, Management",,No,"Management of consistency of things, not a good fit",,,,,,,,,,,,,,,,,,,,,,,
N_2020_45,,Telekine: Secure Computing with Cloud GPUs,m,,"Cloud, Security",,No,"Not a good fit, this is explicitly focussed on an API",,,,,,,,,,,,,,,,,,,,,,,
N_2020_57,,TinySDR: Low-Power SDR Platform for Over-the-Air Programmable IoT Testbeds,m,,"Hardware, Software",,No,Though it states it is for something 'programmable' this is not mentioned further in the paper,,,,,,,,,,,,,,,,,,,,,,,
N_2020_8,,NetTLP: A Development Platform for PCIe devices in Software Interacting with Hardware,m,,"Hardware, Software, Network",,No,Not a good fit,,,,,,,,,,,,,,,,,,,,,,,
N_2020_42,,XRD: Scalable Messaging System with Cryptographic Privacy,m,,"Security, Communication, Network",,No,Paper is about the stup and implementation of the 'protocol' rather than any tool to enact it,,,,,,,,,,,,,,,,,,,,,,,
N_2020_35,,Batchy: Batch-scheduling Data Flow Graphs with Service-level Objectives,m,,"Graphs, Network",,No,"Not a good fit, paper concerned wtih automatic system, not user input at all (semingly)",,,,,,,,,,,,,,,,,,,,,,,
N_2020_48,,Fawkes: Faster Mobile Page Loads via App-Inspired Static Templating,m,,"Mobile, Web",,No,"Don't think there is any real user interaction with Fawkes, so not a good fit",,,,,,,,,,,,,,,,,,,,,,,
N_2020_53,,Config2Spec: Mining Network Specifications from Network Configurations,m,,"Network, Configuration",,No,About automatic verification,,,,,,,,,,,,,,,,,,,,,,,
N_2020_16,,Themis: Fair and Efficient GPU Cluster Scheduling,m,,"Cluster, Scheduling, Trace",,No,Automated scheduling,,,,,,,,,,,,,,,,,,,,,,,
N_2020_19,,Frequency Configuration for Low-Power Wide-Area Networks in a Heartbeat,m,,"Network, Configuration",,No,Not a good fit,,,,,,,,,,,,,,,,,,,,,,,
N_2020_36,,Adapting TCP for Reconfigurable Datacenter Networks,m,,"Configuration, Datacentre, Network",,No,Not a good fit,,,,,,,,,,,,,,,,,,,,,,,
N_2020_37,,A High-Speed Load-Balancer Design with Guaranteed Per-Connection-Consistency,m,,"Load Balancing, Software, Hardware",,No,Bad fit,,,,,,,,,,,,,,,,,,,,,,,
N_2020_20,,ABC: A Simple Explicit Congestion Controller for Wireless Networks,m,,Network,,No,"A protocol, not a user tool",,,,,,,,,,,,,,,,,,,,,,,
A_2020_5,,Time-sensitive Intermittent Computing Meets Legacy Software,m,,"Hardware, Software, Sensor Systems",,No,Not a good fit,,,,,,,,,,,,,,,,,,,,,,,
O_2020_55,,Do OS abstractions make sense on FPGAs?,m,,"OS, Hardware",,No,Not a good fit,,,,,,,,,,,,,,,,,,,,,,,
A_2020_44,,FirePerf: FPGA-Accelerated Full-System Hardware/Software Performance Profiling and Co-Design,m,,"Hardware, Simulation, Networks, Analysis, OS",,No,The output from the system is done with flame graphs and is not a concern of the paper,,,,,,,,,,,,,,,,,,,,,,,
O_2020_46,,Building Scalable and Flexible Cluster Managers Using Declarative Programming,m,,"Cluster, Management",,No,"Just about specifying things/input, not about output",,,,,,,,,,,,,,,,,,,,,,,
SI_2020_24,,Reducto: On-Camera Filtering for Resource-Efficient Real-Time Video Analytics,m,,"Realtime, Image",,No,Bad fit,,,,,,,,,,,,,,,,,,,,,,,
A_2020_25,,Livia: Data-Centric Computing Throughout the Memory Hierarchy,m,,"Systems, Memory, Cache",,No,Bad fit,,,,,,,,,,,,,,,,,,,,,,,
A_2020_23,,DeepSniffer: A DNN Model Extraction Framework Based on Learning Architectural Hints,m,,ML,,No,The output is all fed directly into the system and not used by humans I don't think,,,,,,,,,,,,,,,,,,,,,,,
A_2020_38,,Vortex: Extreme-Performance Memory Abstractions for Data-Intensive Streaming Applications,m,,"Software, Memory, Stream",,No,Doesn't seem to be concerned with output at all,,,,,,,,,,,,,,,,,,,,,,,
O_2020_66,,Fault-tolerant and transactional stateful serverless workflows,m,,"Serverless, System",,No,Is a system for building things on top of,,,,,,,,,,,,,,,,,,,,,,,
A_2020_7,,Lynx: A SmartNIC-driven Accelerator-centric Architecture for Network Servers,m,,IO,,No,Just concerned with acceleration/automation of this,,,,,,,,,,,,,,,,,,,,,,,
SI_2020_22,,Composing Dataplane Programs with μP4,m,,"Programming, Networks, Software",,No,Programming Language,,,,,,,,,,,,,,,,,,,,,,,
O_2020_11,,Generalized Sub-Query Fusion for Eliminating Redundant I/O from Big-Data Queries,m,,"IO, Database",,No,Don't think so,,,,,,,,,,,,,,,,,,,,,,,
SI_2020_7,,Neural-Enhanced Live Streaming: Improving Live Video Ingest via Online Learning,m,,"Video, ML",,No,"Not about output, even though it is about improving user experience",,,,,,,,,,,,,,,,,,,,,,,
A_2020_66,,FlatStore: An Efficient Log-Structured Key-Value Storage Engine for Persistent Memory,m,,Storage,,No,Bad fit,,,,,,,,,,,,,,,,,,,,,,,
SI_2020_41,,PCC Proteus: Scavenger Transport And Beyond,m,,"Network, Management",,No,Bad fit,,,,,,,,,,,,,,,,,,,,,,,
A_2020_52,,FlexTensor: An Automatic Schedule Exploration and Optimization Framework for Tensor Computation on Heterogeneous System,m,,"ML, Systems",,No,Explicitly keeps humans out of the loop,,,,,,,,,,,,,,,,,,,,,,,
SI_2020_50,,Probabilistic Verification of Network Configurations,m,,"Network, Configuration",,No,Automated thing,,,,,,,,,,,,,,,,,,,,,,,
SI_2020_9,,PCF: Provably Resilient Flexible Routing,m,,"Network, Configuration",,No,Bad fit,,,,,,,,,,,,,,,,,,,,,,,
A_2020_43,,"BYOC: A ""Bring Your Own Core"" Framework for Heterogeneous-ISA Research",m,,"Network, Hardware",,No,Bad fit,,,,,,,,,,,,,,,,,,,,,,,
A_2020_18,,Hailstorm: Disaggregated Compute and Storage for Distributed LSM-based Databases,m,,"Distributed, Storage, Database",,No,All about the backend functionality for a distributed data storage system,,,,,,,,,,,,,,,,,,,,,,,
A_2020_46,,AsymNVM: An Efficient Framework for Implementing Persistent Data Structures on Asymmetric NVM Architecture,m,,"Datacentre, Hardware",,No,Bad fit,,,,,,,,,,,,,,,,,,,,,,,
A_2020_36,,LeapIO: Efficient and Portable Virtual NVMe Storage on ARM SoCs,m,,"Datacentre, Storage",,No,Bad fit,,,,,,,,,,,,,,,,,,,,,,,
A_2020_81,,Evanesco: Architectural Support for Efficient Data Sanitization in Modern Flash-Based Storage Systems,m,,"Storage, Hardware, Santization",,No,Bad fit,,,,,,,,,,,,,,,,,,,,,,,
O_2020_7,,CrossFS: A Cross-layered Direct-Access File System,m,,File System,,No,Bad fit,,,,,,,,,,,,,,,,,,,,,,,
A_2020_53,,AutoTM: Automatic Tensor Movement in Heterogeneous Memory Systems using Integer Linear Programming,m,,Hardware,,No,Bad fit,,,,,,,,,,,,,,,,,,,,,,,
A_2020_75,,The TrieJax Architecture: Accelerating Graph Operations Through Relational Joins,m,,"Hardware, Database",,No,Bad fit,,,,,,,,,,,,,,,,,,,,,,,
SI_2020_43,,A Low Latency and Consistent Cellular Control Plane,m,,"Network, Control",,No,Bad fit,,,,,,,,,,,,,,,,,,,,,,,
O_2020_4,,Determinizing Crash Behavior with a Verified Snapshot-Consistent Flash Translation Layer,m,,Failure,,No,Bad fit,,,,,,,,,,,,,,,,,,,,,,,
SI_2020_35,,Zero Downtime Release: Disruption-free Load Balancing of a Multi-Billion User Website,m,,"Network, Management",,No,Bad fit,,,,,,,,,,,,,,,,,,,,,,,
SI_2020_47,,1RMA: Re-envisioning Remote Memory Access for Multi-tenant Datacenters,m,,"Network, Configuration",,No,Bad fit,,,,,,,,,,,,,,,,,,,,,,,
O_2020_56,,Assise: Performance and Availability via Client-local NVM in a Distributed File System,m,,"Distributed, File System",,No,Bad fit,,,,,,,,,,,,,,,,,,,,,,,
O_2020_47,,Protean: VM Allocation Service at Scale,m,,"Distributed, Allocation",,No,Automatic service,,,,,,,,,,,,,,,,,,,,,,,
SI_2020_6,,TEA: Enabling State-Intensive Network Functions on Programmable Switches,m,,"Networks, Configuration, Programming, Hardware",,No,Bad fit,,,,,,,,,,,,,,,,,,,,,,,
O_2020_17,,"AIFM: High-Performance, Application-Integrated Far Memory",m,,Memory,,No,"About an API between sections, not user facing",,,,,,,,,,,,,,,,,,,,,,,
A_2020_19,,Peacenik: Architecture Support for Not Failing under Fail-Stop Memory Consistency,m,,"Memory, Availability, Consistency",,No,Bad fit,,,,,,,,,,,,,,,,,,,,,,,
O_2020_21,,Pegasus: Tolerating Skewed Workloads in Distributed Storage with In-Network Coherence Directories,m,,"Storage, Distributed",,No,Bad fit,,,,,,,,,,,,,,,,,,,,,,,
SI_2020_46,,NFC+: Breaking NFC Networking Limits through Resonance Engineering,m,,"Network, Hardware",,No,Bad fit,,,,,,,,,,,,,,,,,,,,,,,
SI_2020_69,,"Thunderbolt: Throughput-Optimized, Quality-of-Service-Aware Power Capping at Scale",m,,Power,,No,Bad fit,,,,,,,,,,,,,,,,,,,,,,,
A_2020_28,,Catalyzer: Sub-millisecond Startup for Serverless Computing with Initialization-less Booting,m,,"Cloud, Serverless, Software",,No,Bad fit,,,,,,,,,,,,,,,,,,,,,,,
A_2020_32,,Thesaurus: Efficient Cache Compression via Dynamic Clustering,m,,"Cluster, Cache",,No,Bad fit,,,,,,,,,,,,,,,,,,,,,,,
A_2020_21,,Perspective: A Sensible Approach to Speculative Automatic Parallelization,m,,"Software, Multithread",,No,Bad fit,,,,,,,,,,,,,,,,,,,,,,,
O_2020_13,,PANIC: A High-Performance Programmable NIC for Multi-tenant Networks,m,,Network,,No,About a programmable NIC,,,,,,,,,,,,,,,,,,,,,,,
A_2020_61,,Software Mitigation of Crosstalk on Noisy Intermediate-Scale Quantum Computers,m,,"Hardware, Quantum, Optimisation",,No,"Brief discussion about some output, but this paper is almost exclusively about optimisations to technical details",,,,,,,,,,,,,,,,,,,,,,,
A_2020_69,,Safecracker: Leaking Secrets through Compressed Caches,m,,Security,,No,"About exploiting cache compression, nothing to do with output",,,,,,,,,,,,,,,,,,,,,,,
A_2020_84,,Batch-Aware Unified Memory Management in GPUs for Irregular Workloads,m,,"Software, Memory, Management, Optimisation",,No,"All about the improved performance their work creates on technical side, ie overhear and similar",,,,,,,,,,,,,,,,,,,,,,,
A_2020_62,,Quantum Circuits for Dynamic Runtime Assertions in Quantum Computation,m,,"Hardware, Quantum",,No,Bad fit,,,,,,,,,,,,,,,,,,,,,,,
A_2020_24,,Prague: High-Performance Heterogeneity-Aware Asynchronous Decentralized Training,m,,"Cloud, Distributed",,No,Bad fit,,,,,,,,,,,,,,,,,,,,,,,
SI_2020_49,,Annulus: A Dual Congestion Control Loop for Datacenter and WAN Traffic Aggregates,m,,"Network, Management, Datacentre",,No,Automated transport protocol stuff,,,,,,,,,,,,,,,,,,,,,,,
SI_2020_1,,TACK: Improving Wireless Transport Performance by Taming Acknowledgments,m,,"Protocol, Network",,No,Again just new protocol stuff,,,,,,,,,,,,,,,,,,,,,,,
O_2020_10,,A large scale analysis of hundreds of in-memory cache clusters at Twitter,m,,"Analysis, Memory, Cache, Cluster",,No,"All about their analysis of something, not about facilitating analysis",,,,,,,,,,,,,,,,,,,,,,,
O_2020_42,,Providing SLOs for Resource-Harvesting VMs in Cloud Platforms,m,,"Cloud, VM, SLO",,No,Bad fit,,,,,,,,,,,,,,,,,,,,,,,
SI_2020_4,,Concurrent Entanglement Routing for Quantum Networks: Model and Designs,m,,"Network, Protocol, Quantum",,No,Bad fit,,,,,,,,,,,,,,,,,,,,,,,
SI_2020_21,,GRooT: Proactive Verification of DNS Configurations,m,,"Network, Verification",,No,Bad fit,,,,,,,,,,,,,,,,,,,,,,,
SOC_2020_5,,A user-level toolkit for storage I/O isolation on multitenant hosts,y,n,Toolkit,,No,Bad fit,,,,,,,,,,,,,,,,,,,,,,,
SOC_2020_6,,Baoverlay: a block-accessible overlay file system for fast and efficient container storage,m,n,"FS, Efficiency",,No,,,,,,,,,,,,,,,,,,,,,,,,
SOC_2020_22,,Kappa: a programming framework for serverless computing,m,n,"Serverless, Framework",,No,It's a framewokr to facilitating running of bits but doesn't need any interaction with a human,,,,,,,,,,,,,,,,,,,,,,,
SOC_2020_23,,HangFix: automatically fixing software hang bugs for production cloud systems,m,y,"Automation, Bug, Cloud",,No,Intended to be a fully automated thing I think,,,,,,,,,,,,,,,,,,,,,,,